module github.com/owncast/owncast

go 1.17

require (
	github.com/amalfra/etag v0.0.0-20190921100247-cafc8de96bc5
	github.com/aws/aws-sdk-go v1.43.0
	github.com/go-fed/activity v1.0.1-0.20210803212804-d866ba75dd0f
	github.com/go-fed/httpsig v1.1.0
	github.com/go-ole/go-ole v1.2.6 // indirect
	github.com/gorilla/websocket v1.5.0
	github.com/grafov/m3u8 v0.11.1
	github.com/lestrrat-go/file-rotatelogs v2.4.0+incompatible
	github.com/mattn/go-sqlite3 v1.14.10
	github.com/microcosm-cc/bluemonday v1.0.18
	github.com/mssola/user_agent v0.5.3
	github.com/nareix/joy5 v0.0.0-20200712071056-a55089207c88
	github.com/oschwald/geoip2-golang v1.6.1
	github.com/rifflock/lfshook v0.0.0-20180920164130-b9218ef580f5
	github.com/schollz/sqlite3dump v1.3.1
	github.com/sirupsen/logrus v1.8.1
	github.com/teris-io/shortid v0.0.0-20201117134242-e59966efd125
	github.com/yuin/goldmark v1.4.7
	golang.org/x/mod v0.5.1
	golang.org/x/time v0.0.0-20220224211638-0e9765cccd65
	mvdan.cc/xurls v1.1.0
)

require (
	github.com/aymerick/douceur v0.2.0 // indirect
	github.com/gorilla/css v1.0.0 // indirect
	github.com/jmespath/go-jmespath v0.4.0 // indirect
	github.com/jonboulle/clockwork v0.2.2 // indirect
	github.com/lestrrat-go/strftime v1.0.4 // indirect
	github.com/mvdan/xurls v1.1.0 // indirect
	github.com/oschwald/maxminddb-golang v1.8.0 // indirect
	github.com/pkg/errors v0.9.1
	github.com/tklauser/go-sysconf v0.3.9 // indirect
	github.com/tklauser/numcpus v0.3.0 // indirect
	github.com/yusufpapurcu/wmi v1.2.2 // indirect
	golang.org/x/crypto v0.0.0-20200622213623-75b288015ac9 // indirect
	golang.org/x/net v0.0.0-20211216030914-fe4d6282115f // indirect
	golang.org/x/sys v0.0.0-20220114195835-da31bd327af9 // indirect
)

require github.com/prometheus/client_golang v1.12.1

require (
	github.com/beorn7/perks v1.0.1 // indirect
	github.com/cespare/xxhash/v2 v2.1.2 // indirect
	github.com/golang/protobuf v1.5.2 // indirect
	github.com/lufia/plan9stats v0.0.0-20211012122336-39d0f177ccd0 // indirect
	github.com/matttproud/golang_protobuf_extensions v1.0.1 // indirect
	github.com/power-devops/perfstat v0.0.0-20210106213030-5aafc221ea8c // indirect
	github.com/prometheus/client_model v0.2.0 // indirect
	github.com/prometheus/common v0.32.1 // indirect
	github.com/prometheus/procfs v0.7.3 // indirect
	google.golang.org/protobuf v1.26.0 // indirect
)

require (
	github.com/nakabonne/tstorage v0.3.5
	github.com/shirou/gopsutil/v3 v3.22.2
)

replace github.com/go-fed/activity => github.com/owncast/activity v1.0.1-0.20211229051252-7821289d4026
